…
Create `tidySCE`, the best of both worlds!
------------------------------------------

This is a *SingleCellExperiment* object but it is evaluated as a tibble.
So it is compatible both with SingleCellExperiment and tidyverse.

    pbmc_small_tidy <- tidySCE::pbmc_small %>% tidy()

**It looks like a tibble**

    pbmc_small_tidy

    ## # A tibble: 80 x 17
    ##    cell  orig.ident nCount_RNA nFeature_RNA RNA_snn_res.0.8 letter.idents groups
    ##    <chr> <fct>           <dbl>        <int> <fct>           <fct>         <chr> 
    ##  1 ATGC… SeuratPro…         70           47 0               A             g2    
    ##  2 CATG… SeuratPro…         85           52 0               A             g1    
    ##  3 GAAC… SeuratPro…         87           50 1               B             g2    
    ##  4 TGAC… SeuratPro…        127           56 0               A             g2    
    ##  5 AGTC… SeuratPro…        173           53 0               A             g2    
    ##  6 TCTG… SeuratPro…         70           48 0               A             g1    
    ##  7 TGGT… SeuratPro…         64           36 0               A             g1    
    ##  8 GCAG… SeuratPro…         72           45 0               A             g1    
    ##  9 GATA… SeuratPro…         52           36 0               A             g1    
    ## 10 AATG… SeuratPro…        100           41 0               A             g1    
    ## # … with 70 more rows, and 10 more variables: RNA_snn_res.1 <fct>, file <chr>,
    ## #   ident <fct>, PC_1 <dbl>, PC_2 <dbl>, PC_3 <dbl>, PC_4 <dbl>, PC_5 <dbl>,
    ## #   tSNE_1 <dbl>, tSNE_2 <dbl>
…
We may want to extract the run/sample name out of it into a separate
column. `extract` can be used to convert a character column into
multiple columns using regular expression groups.

    pbmc_small_polished <-
        pbmc_small_tidy %>%
        extract(file, "sample", "../data/([a-z0-9]+)/outs.+", remove=FALSE)

    pbmc_small_polished %>%
        select(sample, everything())

    ## # A tibble: 80 x 18
    ##    cell  sample orig.ident nCount_RNA nFeature_RNA RNA_snn_res.0.8 letter.idents
    ##    <chr> <chr>  <fct>           <dbl>        <int> <fct>           <fct>        
    ##  1 ATGC… sampl… SeuratPro…         70           47 0               A            
    ##  2 CATG… sampl… SeuratPro…         85           52 0               A            
    ##  3 GAAC… sampl… SeuratPro…         87           50 1               B            
    ##  4 TGAC… sampl… SeuratPro…        127           56 0               A            
    ##  5 AGTC… sampl… SeuratPro…        173           53 0               A            
    ##  6 TCTG… sampl… SeuratPro…         70           48 0               A            
    ##  7 TGGT… sampl… SeuratPro…         64           36 0               A            
    ##  8 GCAG… sampl… SeuratPro…         72           45 0               A            
    ##  9 GATA… sampl… SeuratPro…         52           36 0               A            
    ## 10 AATG… sampl… SeuratPro…        100           41 0               A            
    ## # … with 70 more rows, and 11 more variables: groups <chr>,
    ## #   RNA_snn_res.1 <fct>, file <chr>, ident <fct>, PC_1 <dbl>, PC_2 <dbl>,
    ## #   PC_3 <dbl>, PC_4 <dbl>, PC_5 <dbl>, tSNE_1 <dbl>, tSNE_2 <dbl>
…
    # perform PCA with scater
    pbmc_small_pca <-
        pbmc_small_polished %>%
        runPCA(subset_row=variable_genes)

    ## Warning in check_numbers(k = k, nu = nu, nv = nv, limit = min(dim(x)) - : more
    ## singular values/vectors requested than available

    ## Warning in (function (A, nv = 5, nu = nv, maxit = 1000, work = nv + 7, reorth =
    ## TRUE, : You're computing too large a percentage of total singular values, use a
    ## standard svd instead.

    pbmc_small_pca

    ## # A tibble: 80 x 18
    ##    cell  orig.ident nCount_RNA nFeature_RNA RNA_snn_res.0.8 letter.idents groups
    ##    <chr> <fct>           <dbl>        <int> <fct>           <fct>         <chr> 
    ##  1 ATGC… SeuratPro…         70           47 0               A             g2    
    ##  2 CATG… SeuratPro…         85           52 0               A             g1    
    ##  3 GAAC… SeuratPro…         87           50 1               B             g2    
    ##  4 TGAC… SeuratPro…        127           56 0               A             g2    
    ##  5 AGTC… SeuratPro…        173           53 0               A             g2    
    ##  6 TCTG… SeuratPro…         70           48 0               A             g1    
    ##  7 TGGT… SeuratPro…         64           36 0               A             g1    
    ##  8 GCAG… SeuratPro…         72           45 0               A             g1    
    ##  9 GATA… SeuratPro…         52           36 0               A             g1    
    ## 10 AATG… SeuratPro…        100           41 0               A             g1    
    ## # … with 70 more rows, and 11 more variables: RNA_snn_res.1 <fct>, file <chr>,
    ## #   sample <chr>, ident <fct>, PC1 <dbl>, PC2 <dbl>, PC3 <dbl>, PC4 <dbl>,
    ## #   PC5 <dbl>, tSNE_1 <dbl>, tSNE_2 <dbl>
…
    # Assigning to the 'colLabels' of the SummarizedExperiment object
    colLabels(pbmc_small_cluster) <-
        pbmc_small_pca %>%
        buildSNNGraph(use.dimred="PCA") %>%
        igraph::cluster_walktrap() %$%
        membership %>%
        as.factor()

    ## Warning in (function (to_check, X, clust_centers, clust_info, dtype, nn, :
    ## detected tied distances to neighbors, see ?'BiocNeighbors-ties'

    pbmc_small_cluster %>% select(label, everything())

    ## # A tibble: 80 x 19
    ##    cell  label orig.ident nCount_RNA nFeature_RNA RNA_snn_res.0.8 letter.idents
    ##    <chr> <fct> <fct>           <dbl>        <int> <fct>           <fct>        
    ##  1 ATGC… 2     SeuratPro…         70           47 0               A            
    ##  2 CATG… 2     SeuratPro…         85           52 0               A            
    ##  3 GAAC… 2     SeuratPro…         87           50 1               B            
    ##  4 TGAC… 1     SeuratPro…        127           56 0               A            
    ##  5 AGTC… 2     SeuratPro…        173           53 0               A            
    ##  6 TCTG… 2     SeuratPro…         70           48 0               A            
    ##  7 TGGT… 1     SeuratPro…         64           36 0               A            
    ##  8 GCAG… 2     SeuratPro…         72           45 0               A            
    ##  9 GATA… 2     SeuratPro…         52           36 0               A            
    ## 10 AATG… 2     SeuratPro…        100           41 0               A            
    ## # … with 70 more rows, and 12 more variables: groups <chr>,
    ## #   RNA_snn_res.1 <fct>, file <chr>, sample <chr>, ident <fct>, PC1 <dbl>,
    ## #   PC2 <dbl>, PC3 <dbl>, PC4 <dbl>, PC5 <dbl>, tSNE_1 <dbl>, tSNE_2 <dbl>
…
    pbmc_small_cell_type <-
        pbmc_small_UMAP %>%
        left_join(cell_type_df, by="cell")

    pbmc_small_cell_type %>%
        tidySCE::select(cell, first.labels, everything())

    ## # A tibble: 80 x 23
    ##    cell  first.labels orig.ident nCount_RNA nFeature_RNA RNA_snn_res.0.8
    ##    <chr> <chr>        <fct>           <dbl>        <int> <fct>          
    ##  1 ATGC… CD4+ T-cells SeuratPro…         70           47 0              
    ##  2 CATG… CD8+ T-cells SeuratPro…         85           52 0              
    ##  3 GAAC… CD8+ T-cells SeuratPro…         87           50 1              
    ##  4 TGAC… CD4+ T-cells SeuratPro…        127           56 0              
    ##  5 AGTC… CD4+ T-cells SeuratPro…        173           53 0              
    ##  6 TCTG… CD4+ T-cells SeuratPro…         70           48 0              
    ##  7 TGGT… CD4+ T-cells SeuratPro…         64           36 0              
    ##  8 GCAG… CD4+ T-cells SeuratPro…         72           45 0              
    ##  9 GATA… CD4+ T-cells SeuratPro…         52           36 0              
    ## 10 AATG… CD4+ T-cells SeuratPro…        100           41 0              
    ## # … with 70 more rows, and 17 more variables: letter.idents <fct>,
    ## #   groups <chr>, RNA_snn_res.1 <fct>, file <chr>, sample <chr>, ident <fct>,
    ## #   label <fct>, PC1 <dbl>, PC2 <dbl>, PC3 <dbl>, PC4 <dbl>, PC5 <dbl>,
    ## #   tSNE_1 <dbl>, tSNE_2 <dbl>, UMAP1 <dbl>, UMAP2 <dbl>, UMAP3 <dbl>
…
    pbmc_small_nested_interactions %>%
        select(-data) %>%
        unnest(interactions)

If the data set was not so small, and interactions could be identified,
you would see something as below.

    tidySCE::pbmc_small_nested_interactions

    ## # A tibble: 100 x 9
    ##    sample ligand receptor ligand.name receptor.name origin destination
    ##    <chr>  <chr>  <chr>    <chr>       <chr>         <chr>  <chr>      
    ##  1 sampl… clust… cluster… PTMA        VIPR1         clust… cluster 2  
    ##  2 sampl… clust… cluster… B2M         KLRD1         clust… cluster 2  
    ##  3 sampl… clust… cluster… IL16        CD4           clust… cluster 2  
    ##  4 sampl… clust… cluster… HLA-B       KLRD1         clust… cluster 2  
    ##  5 sampl… clust… cluster… CALM1       VIPR1         clust… cluster 2  
    ##  6 sampl… clust… cluster… HLA-E       KLRD1         clust… cluster 2  
    ##  7 sampl… clust… cluster… GNAS        VIPR1         clust… cluster 2  
    ##  8 sampl… clust… cluster… B2M         HFE           clust… cluster 2  
    ##  9 sampl… clust… cluster… PTMA        VIPR1         clust… cluster 3  
    ## 10 sampl… clust… cluster… CALM1       VIPR1         clust… cluster 3  
    ## # … with 90 more rows, and 2 more variables: interaction.type <chr>,
    ## #   LRscore <dbl>
…
