Arrange rows by column values — arrange • tidySingleCellExperiment
…
# Learn more in ?dplyr_tidy_eval

`%>%` <- magrittr::`%>%`
pbmc_small %>%

    group_by(groups)
#> tidySingleCellExperiment says: A data frame is returned for independent data analysis.
#> # A tibble: 80 × 31
#> # Groups:   groups [2]
#>    .cell      orig.…¹ nCoun…² nFeat…³ RNA_s…⁴ lette…⁵ groups RNA_s…⁶ file  ident
#>    <chr>      <fct>     <dbl>   <int> <fct>   <fct>   <chr>  <fct>   <chr> <fct>
#>  1 ATGCCAGAA… Seurat…      70      47 0       A       g2     0       ../d… 0    
#>  2 CATGGCCTG… Seurat…      85      52 0       A       g1     0       ../d… 0    
#>  3 GAACCTGAT… Seurat…      87      50 1       B       g2     0       ../d… 0    
#>  4 TGACTGGAT… Seurat…     127      56 0       A       g2     0       ../d… 0    
#>  5 AGTCAGACT… Seurat…     173      53 0       A       g2     0       ../d… 0    
#>  6 TCTGATACA… Seurat…      70      48 0       A       g1     0       ../d… 0    
#>  7 TGGTATCTA… Seurat…      64      36 0       A       g1     0       ../d… 0    
#>  8 GCAGCTCTG… Seurat…      72      45 0       A       g1     0       ../d… 0    
#>  9 GATATAACA… Seurat…      52      36 0       A       g1     0       ../d… 0    
#> 10 AATGTTGAC… Seurat…     100      41 0       A       g1     0       ../d… 0    
#> # … with 70 more rows, 21 more variables: PC_1 <dbl>, PC_2 <dbl>, PC_3 <dbl>,
#> #   PC_4 <dbl>, PC_5 <dbl>, PC_6 <dbl>, PC_7 <dbl>, PC_8 <dbl>, PC_9 <dbl>,
#> #   PC_10 <dbl>, PC_11 <dbl>, PC_12 <dbl>, PC_13 <dbl>, PC_14 <dbl>,
#> #   PC_15 <dbl>, PC_16 <dbl>, PC_17 <dbl>, PC_18 <dbl>, PC_19 <dbl>,
#> #   tSNE_1 <dbl>, tSNE_2 <dbl>, and abbreviated variable names ¹​orig.ident,
#> #   ²​nCount_RNA, ³​nFeature_RNA, ⁴​RNA_snn_res.0.8, ⁵​letter.idents,
#> #   ⁶​RNA_snn_res.1
…
`%>%` <- magrittr::`%>%`

tt <- pbmc_small
tt %>% full_join(tibble::tibble(groups="g1", other=1:4))
#> Joining with `by = join_by(groups)`
#> tidySingleCellExperiment says: This operation lead to duplicated cell names. A data frame is returned for independent data analysis.
#> # A tibble: 212 × 32
#>    .cell      orig.…¹ nCoun…² nFeat…³ RNA_s…⁴ lette…⁵ groups RNA_s…⁶ file  ident
#>    <chr>      <fct>     <dbl>   <int> <fct>   <fct>   <chr>  <fct>   <chr> <fct>
#>  1 ATGCCAGAA… Seurat…      70      47 0       A       g2     0       ../d… 0    
#>  2 CATGGCCTG… Seurat…      85      52 0       A       g1     0       ../d… 0    
#>  3 CATGGCCTG… Seurat…      85      52 0       A       g1     0       ../d… 0    
#>  4 CATGGCCTG… Seurat…      85      52 0       A       g1     0       ../d… 0    
#>  5 CATGGCCTG… Seurat…      85      52 0       A       g1     0       ../d… 0    
#>  6 GAACCTGAT… Seurat…      87      50 1       B       g2     0       ../d… 0    
#>  7 TGACTGGAT… Seurat…     127      56 0       A       g2     0       ../d… 0    
#>  8 AGTCAGACT… Seurat…     173      53 0       A       g2     0       ../d… 0    
#>  9 TCTGATACA… Seurat…      70      48 0       A       g1     0       ../d… 0    
#> 10 TCTGATACA… Seurat…      70      48 0       A       g1     0       ../d… 0    
#> # … with 202 more rows, 22 more variables: PC_1 <dbl>, PC_2 <dbl>, PC_3 <dbl>,
#> #   PC_4 <dbl>, PC_5 <dbl>, PC_6 <dbl>, PC_7 <dbl>, PC_8 <dbl>, PC_9 <dbl>,
#> #   PC_10 <dbl>, PC_11 <dbl>, PC_12 <dbl>, PC_13 <dbl>, PC_14 <dbl>,
#> #   PC_15 <dbl>, PC_16 <dbl>, PC_17 <dbl>, PC_18 <dbl>, PC_19 <dbl>,
#> #   tSNE_1 <dbl>, tSNE_2 <dbl>, other <int>, and abbreviated variable names
#> #   ¹​orig.ident, ²​nCount_RNA, ³​nFeature_RNA, ⁴​RNA_snn_res.0.8, ⁵​letter.idents,
#> #   ⁶​RNA_snn_res.1
…
