Pivot data from wide to long — pivot_longer • tidySingleCellExperiment
…
    pivot_longer(c(orig.ident, groups), names_to="name", values_to="value")

#> tidySingleCellExperiment says: A data frame is returned for independent data analysis.
#> # A tibble: 160 x 31
#>    cell      nCount_RNA nFeature_RNA RNA_snn_res.0.8 letter.idents RNA_snn_res.1
#>    <chr>          <dbl>        <int> <fct>           <fct>         <fct>        
#>  1 ATGCCAGA…         70           47 0               A             0            
#>  2 ATGCCAGA…         70           47 0               A             0            
#>  3 CATGGCCT…         85           52 0               A             0            
#>  4 CATGGCCT…         85           52 0               A             0            
#>  5 GAACCTGA…         87           50 1               B             0            
#>  6 GAACCTGA…         87           50 1               B             0            
#>  7 TGACTGGA…        127           56 0               A             0            
#>  8 TGACTGGA…        127           56 0               A             0            
#>  9 AGTCAGAC…        173           53 0               A             0            
#> 10 AGTCAGAC…        173           53 0               A             0            
#> # … with 150 more rows, and 25 more variables: file <chr>, ident <fct>,
#> #   PC_1 <dbl>, PC_2 <dbl>, PC_3 <dbl>, PC_4 <dbl>, PC_5 <dbl>, PC_6 <dbl>,
#> #   PC_7 <dbl>, PC_8 <dbl>, PC_9 <dbl>, PC_10 <dbl>, PC_11 <dbl>, PC_12 <dbl>,
#> #   PC_13 <dbl>, PC_14 <dbl>, PC_15 <dbl>, PC_16 <dbl>, PC_17 <dbl>,
#> #   PC_18 <dbl>, PC_19 <dbl>, tSNE_1 <dbl>, tSNE_2 <dbl>, name <chr>,
#> #   value <chr>
…
