Overview of the tidySingleCellExperiment package • tidySingleCellExperiment
…
pbmc_small_nested_interactions %>%
    select(-data) %>%
    unnest(interactions)

If the dataset was not so small, and interactions could be
identified, you would see something like below.

tidySingleCellExperiment::pbmc_small_nested_interactions

## # A tibble: 100 × 9
##    sample  ligand          receptor ligand.name receptor.name origin destination
##    <chr>   <chr>           <chr>    <chr>       <chr>         <chr>  <chr>      
##  1 sample1 cluster 1.PTMA  cluster… PTMA        VIPR1         clust… cluster 2  
##  2 sample1 cluster 1.B2M   cluster… B2M         KLRD1         clust… cluster 2  
##  3 sample1 cluster 1.IL16  cluster… IL16        CD4           clust… cluster 2  
##  4 sample1 cluster 1.HLA-B cluster… HLA-B       KLRD1         clust… cluster 2  
##  5 sample1 cluster 1.CALM1 cluster… CALM1       VIPR1         clust… cluster 2  
##  6 sample1 cluster 1.HLA-E cluster… HLA-E       KLRD1         clust… cluster 2  
##  7 sample1 cluster 1.GNAS  cluster… GNAS        VIPR1         clust… cluster 2  
##  8 sample1 cluster 1.B2M   cluster… B2M         HFE           clust… cluster 2  
##  9 sample1 cluster 1.PTMA  cluster… PTMA        VIPR1         clust… cluster 3  
## 10 sample1 cluster 1.CALM1 cluster… CALM1       VIPR1         clust… cluster 3  
## # … with 90 more rows, and 2 more variables: interaction.type <chr>,
## #   LRscore <dbl>
…
